%YAML 1.1
%TAG !u! tag:unity3d.com,2011:
--- !u!114 &11400000
MonoBehaviour:
  m_ObjectHideFlags: 0
  m_CorrespondingSourceObject: {fileID: 0}
  m_PrefabInstance: {fileID: 0}
  m_PrefabAsset: {fileID: 0}
  m_GameObject: {fileID: 0}
  m_Enabled: 1
  m_EditorHideFlags: 0
  m_Script: {fileID: 11500000, guid: 5fdce35d04c69f64796e1f791880c2d4, type: 3}
  m_Name: AIFollowWaypointsSettings
  m_EditorClassIdentifier: 
  waypoints:
  - {fileID: 3726564502849403161, guid: fd2d15afacbba5a48aa0ed536fc0c478, type: 3}
  - {fileID: 8238794537653719516, guid: 4201afd176aa59f438f5956739235be1, type: 3}
  - {fileID: 118281690646873877, guid: 18040d26a6b8ddb49b28a436395f1e33, type: 3}
  - {fileID: 4742407181741945821, guid: 35ad223dde55bc241af734373994afb7, type: 3}
  minMoveSpeed: 0.7
  maxMoveSpeed: 1
  minIdleTime: 1
  maxIdleTime: 3
  chanceOfIdle: 70
